{
    "automation": [
        {
            "javapackage": "mobile-test",
            "method": "git",
            "params": {
                "url": "https://gitlab.com/openbravo/ci/mobile-test",
                "ver": "release/20Q3"
            }
        }
    ],
    "desc": "Config for retail team",
    "erp": {
        "method": "git",
        "params": {
            "url": "https://gitlab.com/openbravo/projects/functional/openbravo",
            "ver": "release/20Q3"
        }
    },
    "mods": [
        {
            "method": "git",
            "params": {
                "url": "https://gitlab.com/openbravo/product/pmods/com.practicsbs.originalreport",
                "ver": "release/20Q3"
            },
            "javapackage": "com.practicsbs.originalreport"
        },
        {
            "method": "git",
            "params": {
                "url": "https://gitlab.com/openbravo/product/pmods/com.practicsbs.originalreport.retail",
                "ver": "release/20Q3"
            },
            "javapackage": "com.practicsbs.originalreport.retail"
        },
        {
            "method": "git",
            "params": {
                "url": "https://gitlab.com/openbravo/product/pmods/com.practicsbs.saftpt",
                "ver": "release/20Q3"
            },
            "javapackage": "com.practicsbs.saftpt"
        },
        {
            "method": "git",
            "params": {
                "url": "https://gitlab.com/openbravo/product/pmods/com.practicsbs.saftpt.pt_PT",
                "ver": "release/20Q3"
            },
            "javapackage": "com.practicsbs.saftpt.pt_PT"
        },
        {
            "method": "git",
            "params": {
                "url": "https://gitlab.com/openbravo/product/pmods/com.practicsbs.saftpt.template",
                "ver": "release/20Q3"
            },
            "javapackage": "com.practicsbs.saftpt.template"
        },
        {
            "method": "git",
            "params": {
                "url": "https://gitlab.com/openbravo/product/pmods/com.practicsbs.saftpt.retail",
                "ver": "release/20Q3"
            },
            "javapackage": "com.practicsbs.saftpt.retail"
        },
        {
            "method": "git",
            "params": {
                "url": "https://gitlab.com/openbravo/product/pmods/com.practicsbs.saftpt.retail.pt_PT",
                "ver": "release/20Q3"
            },
            "javapackage": "com.practicsbs.saftpt.retail.pt_PT"
        },
        {
            "method": "git",
            "params": {
                "url": "https://gitlab.com/openbravo/product/pmods/com.practicsbs.saftpt.retail.template",
                "ver": "release/20Q3"
            },
            "javapackage": "com.practicsbs.saftpt.retail.template"
        },
        {
            "method": "git",
            "params": {
                "url": "https://gitlab.com/openbravo/product/pmods/com.practicsbs.saftpt.retail.giftcard",
                "ver": "release/20Q3"
            },
            "javapackage": "com.practicsbs.saftpt.retail.giftcard"
	}
    ],
    "deps": [
        {
            "method": "git",
            "params": {
                "url": "https://gitlab.com/openbravo/product/pmods/org.openbravo.retail.discounts.bypaymentmethod",
                "ver": "8d314c24a0a3bf5b42a5877c82808c66f8c52e85"
            },
            "javapackage": "org.openbravo.retail.discounts.bypaymentmethod"
        },
        {
            "method": "git",
            "params": {
                "url": "https://gitlab.com/openbravo/product/pmods/org.openbravo.retail.discounts.bytotal",
                "ver": "2068930fe7851dacadfa8fa9885ea411eb166407"
            },
            "javapackage": "org.openbravo.retail.discounts.bytotal"
        },
        {
            "method": "git",
            "params": {
                "url": "https://gitlab.com/openbravo/product/unsupported/modules/org.openbravo.mobile.warehouse",
                "ver": "9cb274f3aad2f4c58596a96880a229e99e5f9610"
            },
            "javapackage": "org.openbravo.mobile.warehouse"
        },
        {
            "method": "git",
            "params": {
                "url": "https://gitlab.com/openbravo/product/pmods/org.openbravo.multiupc",
                "ver": "3b684bd84405cd1a82d89c3ba1514e5111ab188c"
            },
            "javapackage": "org.openbravo.multiupc"
        },
        {
            "method": "git",
            "params": {
                "url": "https://gitlab.com/openbravo/product/pmods/org.openbravo.retail.discounts.coupons",
                "ver": "4759180bd8098bb1b84d1c5d3268a272d49cddfe"
            },
            "javapackage": "org.openbravo.retail.discounts.coupons"
        },
        {
            "method": "git",
            "params": {
                "url": "https://gitlab.com/openbravo/product/pmods/org.openbravo.retail.discounts.coupons.otf",
                "ver": "656b84307afa3bf0c547a1c1c6acc456953de887"
            },
            "javapackage": "org.openbravo.retail.discounts.coupons.otf"
        },
        {
            "method": "git",
            "params": {
                "url": "https://gitlab.com/openbravo/product/pmods/org.openbravo.retail.pricecriteria",
                "ver": "bac4038cfec32bf6d59d0c8d80b4e98bd2976f7b"
            },
            "javapackage": "org.openbravo.retail.pricecriteria"
        },
        {
            "method": "git",
            "params": {
                "url": "https://gitlab.com/openbravo/product/pmods/org.openbravo.retail.discounts.category",
                "ver": "524331f204147aa1ba8b4be4fce22b0a88ab0d7d"
            },
            "javapackage": "org.openbravo.retail.discounts.category"
        },
        {
            "method": "git",
            "params": {
                "url": "https://gitlab.com/openbravo/product/pmods/org.openbravo.retail.discount.twofamiliescombo",
                "ver": "0bf3941c16a3e8128d3ba737a6333a71d35d2d77"
            },
            "javapackage": "org.openbravo.retail.discount.twofamiliescombo"
        },
        {
            "method": "git",
            "params": {
                "url": "https://gitlab.com/openbravo/product/pmods/org.openbravo.retail.copystore",
                "ver": "77801f2287cea21c5200bedb3df8d7c0a1afd044"
            },
            "javapackage": "org.openbravo.retail.copystore"
        },
        {
            "method": "git",
            "params": {
                "url": "https://gitlab.com/openbravo/product/pmods/org.openbravo.retail.complementary",
                "ver": "a916c84de632bf10d98b47b694e5b34a3c7e8871"
            },
            "javapackage": "org.openbravo.retail.complementary"
        },
        {
            "method": "git",
            "params": {
                "url": "https://gitlab.com/openbravo/product/unsupported/modules/org.openbravo.mobile.warehouse.physicalinventory",
                "ver": "7e04cf0ca58b048f2bf9dfa4d34b2acdb1e7edf9"
            },
            "javapackage": "org.openbravo.mobile.warehouse.physicalinventory"
        },
        {
            "method": "git",
            "params": {
                "url": "https://gitlab.com/openbravo/product/pmods/org.openbravo.mobile.procurement",
                "ver": "665b15c75dc3503bf07ce5eff57239f43235b655"
            },
            "javapackage": "org.openbravo.mobile.procurement"
        },
        {
            "method": "git",
            "params": {
                "url": "https://gitlab.com/openbravo/product/pmods/org.openbravo.retail.multiupc",
                "ver": "7b58892e488df68886926db31a6b8d5eb160124a"
            },
            "javapackage": "org.openbravo.retail.multiupc"
        },
        {
            "method": "git",
            "params": {
                "url": "https://gitlab.com/openbravo/product/pmods/org.openbravo.retail.discounts.combo",
                "ver": "a89bd44ecb9c5515677e9dccce84a74b7aa2ead8"
            },
            "javapackage": "org.openbravo.retail.discounts.combo"
        },
        {
            "method": "git",
            "params": {
                "url": "https://gitlab.com/openbravo/product/pmods/org.openbravo.retail.analytics",
                "ver": "7cab2c01866c4ea205f28528fd60b4511e277941"
            },
            "javapackage": "org.openbravo.retail.analytics"
        },
        {
            "method": "git",
            "params": {
                "url": "https://gitlab.com/openbravo/product/pmods/org.openbravo.retail.taxexempt",
                "ver": "6384fae05c5c536723d01649b702095f16266af3"
            },
            "javapackage": "org.openbravo.retail.taxexempt"
        },
        {
            "method": "git",
            "params": {
                "url": "https://gitlab.com/openbravo/product/pmods/org.openbravo.retail.stockvalidation",
                "ver": "32c4a34afabe647c72f6c01a5615a8dc2bf940df"
            },
            "javapackage": "org.openbravo.retail.stockvalidation"
        },
        {
            "method": "git",
            "params": {
                "url": "https://gitlab.com/openbravo/product/pmods/org.openbravo.retail.giftcards",
                "ver": "d3d1c899709d380589acb1b07aeda5199c896e01"
            },
            "javapackage": "org.openbravo.retail.giftcards"
        },
        {
            "method": "git",
            "params": {
                "url": "https://gitlab.com/openbravo/product/pmods/org.openbravo.retail.stockcriteria",
                "ver": "a7ae99a76d9e09db8c164d9def188c19ca309f4f"
            },
            "javapackage": "org.openbravo.retail.stockcriteria"
        },
        {
            "method": "git",
            "params": {
                "url": "https://gitlab.com/openbravo/product/pmods/org.openbravo.retail.levelpricing",
                "ver": "80ae69d9fa59f50b502632317112db570264c45f"
            },
            "javapackage": "org.openbravo.retail.levelpricing"
        },
        {
            "method": "git",
            "params": {
                "url": "https://gitlab.com/openbravo/product/pmods/org.openbravo.retail.activediscountspopup",
                "ver": "74c71bcab22de33a1707d525220eb83122383d6c"
            },
            "javapackage": "org.openbravo.retail.activediscountspopup"
        },
        {
            "method": "git",
            "params": {
                "url": "https://gitlab.com/openbravo/product/pmods/org.openbravo.retail.copybestsellers",
                "ver": "9089976280d3e3f9816d658b67d034acebe5eb77"
            },
            "javapackage": "org.openbravo.retail.copybestsellers"
        },
        {
            "method": "git",
            "params": {
                "url": "https://gitlab.com/openbravo/product/pmods/org.openbravo.retail.discounts.scaledprice",
                "ver": "b512102fa7fbd45a450824e576aef87e59803034"
            },
            "javapackage": "org.openbravo.retail.discounts.scaledprice"
        },
        {
            "method": "git",
            "params": {
                "url": "https://gitlab.com/openbravo/product/pmods/org.openbravo.retail.bestsellers",
                "ver": "432fcaf86b9dd1f82b4a28161cfc0afced982a2c"
            },
            "javapackage": "org.openbravo.retail.bestsellers"
        },
        {
            "method": "git",
            "params": {
                "url": "https://gitlab.com/openbravo/product/pmods/org.openbravo.pricing.levelpricing",
                "ver": "9ae83b3f310e416ccb34d334698845fca277a52d"
            },
            "javapackage": "org.openbravo.pricing.levelpricing"
        },
        {
            "method": "git",
            "params": {
                "url": "https://gitlab.com/openbravo/product/pmods/org.openbravo.retail.showprodsk",
                "ver": "9769ed8b11d83b64c1c3033aca40ab803a3d060e"
            },
            "javapackage": "org.openbravo.retail.showprodsk"
        },
        {
            "method": "git",
            "params": {
                "url": "https://gitlab.com/openbravo/product/pmods/org.openbravo.retail.trainingmode",
                "ver": "47a75d6332b877f895052d1c76c5d4155b458596"
            },
            "javapackage": "org.openbravo.retail.trainingmode"
        },
        {
            "method": "git",
            "params": {
                "url": "https://gitlab.com/openbravo/product/pmods/org.openbravo.retail.printlast",
                "ver": "02b1be688683d6dc4d677ee6b182eb1cbb706fcd"
            },
            "javapackage": "org.openbravo.retail.printlast"
        },
        {
            "method": "git",
            "params": {
                "url": "https://gitlab.com/openbravo/product/pmods/org.openbravo.retail.sessions",
                "ver": "ca13690a5e98aaf7b1376f25097f56b4fb614821"
            },
            "javapackage": "org.openbravo.retail.sessions"
        },
        {
            "method": "git",
            "params": {
                "url": "https://gitlab.com/openbravo/product/pmods/org.openbravo.retail.marginindicator",
                "ver": "da0515be816a38ffa90b31ed4fb497f84370d26f"
            },
            "javapackage": "org.openbravo.retail.marginindicator"
        },
        {
            "method": "git",
            "params": {
                "url": "https://gitlab.com/openbravo/product/pmods/org.openbravo.retail.productonthefly",
                "ver": "5f0e143b6968473adb65ad7becca5eb9a8b5c380"
            },
            "javapackage": "org.openbravo.retail.productonthefly"
        },
        {
            "method": "git",
            "params": {
                "url": "https://gitlab.com/openbravo/product/pmods/org.openbravo.retail.scanreceipt",
                "ver": "191076e310524c6370ab7b9df82aa0a1316ae8fe"
            },
            "javapackage": "org.openbravo.retail.scanreceipt"
        },
        {
            "method": "git",
            "params": {
                "url": "https://gitlab.com/openbravo/product/pmods/org.openbravo.retail.digitalcoupons",
                "ver": "74877f15a9caceb67368f9a8b2160fc5e05ea424"
            },
            "javapackage": "org.openbravo.retail.digitalcoupons"
        },
        {
            "method": "git",
            "params": {
                "url": "https://gitlab.com/openbravo/product/pmods/org.openbravo.retail.chequecadeau",
                "ver": "cf55d4f57a913819e0546299fa408d989515fca0"
            },
            "javapackage": "org.openbravo.retail.chequecadeau"
        },
        {
            "method": "git",
            "params": {
                "url": "https://gitlab.com/openbravo/product/pmods/org.openbravo.retail.selfcheckout",
                "ver": "d31588386e563155632d7ad78f927a115eba60ae"
            },
            "javapackage": "org.openbravo.retail.selfcheckout"
        },
        {
            "method": "git",
            "params": {
                "url": "https://gitlab.com/openbravo/product/pmods/org.openbravo.retail.fastbrowse",
                "ver": "24338212e9f1b311f39771acfc0af50bd5d9d475"
            },
            "javapackage": "org.openbravo.retail.fastbrowse"
        },
        {
            "method": "git",
            "params": {
                "url": "https://gitlab.com/openbravo/product/pmods/org.openbravo.retail.verystar",
                "ver": "c3da6e2d123fabca4675a6e94013d01bba3061e5"
            },
            "javapackage": "org.openbravo.retail.verystar"
        },
        {
            "method": "git",
            "params": {
                "url": "https://gitlab.com/openbravo/product/pmods/org.openbravo.retail.selfcheckout.verystar",
                "ver": "51e7fc82f729b439129b1cb73c1868a281c96f25"
            },
            "javapackage": "org.openbravo.retail.selfcheckout.verystar"
        },
        {
            "method": "git",
            "params": {
                "url": "https://gitlab.com/openbravo/product/unsupported/modules/org.openbravo.mobile.warehouse.picking",
                "ver": "6193f3c847953d02157b3808ec4c9b867fbfa741"
            },
            "javapackage": "org.openbravo.mobile.warehouse.picking"
        },
        {
            "method": "git",
            "params": {
                "url": "https://gitlab.com/openbravo/product/pmods/org.openbravo.pricing.scalablelevelpricing",
                "ver": "5855e0bcbc8b6e3f753a893d07dcdd285297ebcd"
            },
            "javapackage": "org.openbravo.pricing.scalablelevelpricing"
        },
        {
            "method": "git",
            "params": {
                "url": "https://gitlab.com/openbravo/product/unsupported/modules/org.openbravo.warehouse.pickinglist",
                "ver": "814e58a9a96efea7a762179f02b15471560ea208"
            },
            "javapackage": "org.openbravo.warehouse.pickinglist"
        },
        {
            "method": "git",
            "params": {
                "url": "https://gitlab.com/openbravo/product/unsupported/modules/org.openbravo.warehouse.structure",
                "ver": "e7dcb3e2f153c37bb24ded45090da941a742ac3b"
            },
            "javapackage": "org.openbravo.warehouse.structure"
        },
        {
            "method": "git",
            "params": {
                "url": "https://gitlab.com/openbravo/ci/modules/org.openbravo.certification.france.dev",
                "ver": "ad0c976c9b6fddd1b36848cfe6f8d0f4cfcb9703"
            },
            "javapackage": "org.openbravo.certification.france"
        },
        {
            "method": "git",
            "params": {
                "url": "https://gitlab.com/openbravo/ci/modules/org.openbravo.certification.france.testing",
                "ver": "64b003180325c2291ccdb1b59e439565258cf8d1"
            },
            "javapackage": "org.openbravo.certification.france.testing"
        },
        {
            "method": "git",
            "params": {
                "url": "https://gitlab.com/openbravo/product/pmods/org.openbravo.retail.contactinfoforproduct",
                "ver": "5ed2c0bbb601b9e3f77a739f0ac5122f87979d25"
            },
            "javapackage": "org.openbravo.retail.contactinfoforproduct"
        },
        {
            "method": "git",
            "params": {
                "url": "https://gitlab.com/openbravo/product/pmods/org.openbravo.retail.multitaxcategory",
                "ver": "7a73a349f2ecd35231b804dcef93d2b8e1e90b21"
            },
            "javapackage": "org.openbravo.retail.multitaxcategory"
        },
        {
            "method": "git",
            "params": {
                "url": "https://gitlab.com/openbravo/product/pmods/org.openbravo.retail.sumupprovider",
                "ver": "9dc356114a9bc89fa151c6da161e970b35a2c35d"
            },
            "javapackage": "org.openbravo.retail.sumupprovider"
        },
        {
            "method": "git",
            "params": {
                "url": "https://gitlab.com/openbravo/product/pmods/org.openbravo.retail.chasepaymentech",
                "ver": "e505bc015843564bf68f193bd03929ecf87b4f4d"
            },
            "javapackage": "org.openbravo.retail.chasepaymentech"
        },
        {
            "method": "git",
            "params": {
                "url": "https://gitlab.com/openbravo/product/pmods/org.openbravo.retail.selfcheckout.chasepaymentech",
                "ver": "8102885160f2dd5918afedb5ec09775ab32e8fbf"
            },
            "javapackage": "org.openbravo.retail.selfcheckout.chasepaymentech"
        },
        {
            "method": "git",
            "params": {
                "url": "https://gitlab.com/openbravo/product/pmods/org.openbravo.retail.emailphoneicons",
                "ver": "54af78461556a7175a626a2073352dabc9c38f4e"
            },
            "javapackage": "org.openbravo.retail.emailphoneicons"
        },
        {
            "method": "git",
            "params": {
                "url": "https://gitlab.com/openbravo/product/pmods/org.openbravo.retail.autobom",
                "ver": "6ab767fa723623dcab3c86ef0acbe8c91ddbb5a0"
            },
            "javapackage": "org.openbravo.retail.autobom"
        },
        {
            "method": "git",
            "params": {
                "url": "https://gitlab.com/openbravo/product/pmods/org.openbravo.retail.forgotpassword",
                "ver": "b90575a0e0f20abc4afb970bd21b3991932dadb3"
            },
            "javapackage": "org.openbravo.retail.forgotpassword"
        },
        {
            "method": "git",
            "params": {
                "url": "https://gitlab.com/openbravo/product/pmods/org.openbravo.service.integration.magento.core",
                "ver": "7b14bb85646cffe307ad1afd7f88864ccc756ad2"
            },
            "javapackage": "org.openbravo.service.integration.magento.core"
        },
        {
            "method": "git",
            "params": {
                "url": "https://gitlab.com/openbravo/product/pmods/org.openbravo.service.integration.magento.mappings",
                "ver": "9ac6678d869be88e8fdea6c913f1dffaa06d83eb"
            },
            "javapackage": "org.openbravo.service.integration.magento.mappings"
        },
        {
            "method": "git",
            "params": {
                "url": "https://gitlab.com/openbravo/product/pmods/org.openbravo.retail.services.autoprice",
                "ver": "d363c981852db541412d800a971286ecd77f63ac"
            },
            "javapackage": "org.openbravo.retail.services.autoprice"
        },
        {
            "method": "git",
            "params": {
                "url": "https://gitlab.com/openbravo/product/pmods/org.openbravo.loyalty.programs",
                "ver": "0e29bd8981c8c5b99891629d143d9783e49b29e7"
            },
            "javapackage": "org.openbravo.loyalty.programs"
        },
        {
            "method": "git",
            "params": {
                "url": "https://gitlab.com/openbravo/product/pmods/org.openbravo.retail.loyalty.programs",
                "ver": "50e0cde601868119d16a98bec578d1002d6790aa"
            },
            "javapackage": "org.openbravo.retail.loyalty.programs"
        },
        {
            "method": "git",
            "params": {
                "url": "https://gitlab.com/openbravo/product/pmods/org.openbravo.loyalty.burn.coupon",
                "ver": "12847896d04389a1aced387ae586b200a023326b"
            },
            "javapackage": "org.openbravo.loyalty.burn.coupon"
        },
        {
            "method": "git",
            "params": {
                "url": "https://gitlab.com/openbravo/product/pmods/org.openbravo.retail.loyalty.burn.coupon",
                "ver": "67dd9c0555ce20e649a44cce5312b9753518914d"
            },
            "javapackage": "org.openbravo.retail.loyalty.burn.coupon"
        },
        {
            "method": "git",
            "params": {
                "url": "https://gitlab.com/openbravo/product/pmods/org.openbravo.loyalty.burn.expired",
                "ver": "d44d0c8082e25f88a973ef03c7323544008be576"
            },
            "javapackage": "org.openbravo.loyalty.burn.expired"
        },
        {
            "method": "git",
            "params": {
                "url": "https://gitlab.com/openbravo/product/pmods/org.openbravo.loyalty.burn.giftcertificate",
                "ver": "757019dae831e0db678aeb2679b8c690541eb6ff"
            },
            "javapackage": "org.openbravo.loyalty.burn.giftcertificate"
        },
        {
            "method": "git",
            "params": {
                "url": "https://gitlab.com/openbravo/product/pmods/org.openbravo.retail.loyalty.burn.giftcertificate",
                "ver": "9c1b749f3933ed7a089db0c7515bee140117f80a"
            },
            "javapackage": "org.openbravo.retail.loyalty.burn.giftcertificate"
        },
        {
            "method": "git",
            "params": {
                "url": "https://gitlab.com/openbravo/product/pmods/org.openbravo.loyalty.earn.buyxearny",
                "ver": "c90173dce9246d1306c025e8acbe7008503f6b27"
            },
            "javapackage": "org.openbravo.loyalty.earn.buyxearny"
        },
        {
            "method": "git",
            "params": {
                "url": "https://gitlab.com/openbravo/product/unsupported/modules/org.openbravo.retail.restaurantmanagement",
                "ver": "d12d26d7233764eac72096606cc208c076e9c2e8"
            },
            "javapackage": "org.openbravo.retail.restaurantmanagement"
        },
        {
            "method": "git",
            "params": {
                "url": "https://gitlab.com/openbravo/ci/modules/org.openbravo.retail.discounts.tests",
                "ver": "5c183e85c25d59ca28b1ac63120880e4a1d12034"
            },
            "javapackage": "org.openbravo.retail.discounts.tests"
        },
        {
            "method": "git",
            "params": {
                "url": "https://gitlab.com/openbravo/product/pmods/org.openbravo.retail.oms.orderconfirmation",
                "ver": "81172f80634cefb88ebe2cb30ae4350ac5f40ed8"
            },
            "javapackage": "org.openbravo.retail.oms.orderconfirmation"
        },
        {
            "method": "git",
            "params": {
                "url": "https://gitlab.com/openbravo/product/pmods/org.openbravo.oms.retail",
                "ver": "91e0e63039af030fbe7c9cb4415c3611c063451e"
            },
            "javapackage": "org.openbravo.oms.retail"
        },
        {
            "method": "git",
            "params": {
                "url": "https://gitlab.com/openbravo/product/pmods/org.openbravo.retail.api",
                "ver": "b2bfa884ba63b59c2ba09839831f0fa3c1d1bb7e"
            },
            "javapackage": "org.openbravo.retail.api"
        },
        {
            "method": "git",
            "params": {
                "url": "https://gitlab.com/openbravo/product/mods/org.openbravo.retail.france.ecotax",
                "ver": "35ebf251db89ad71f9de77159d67b32a5da5be4e"
            },
            "javapackage": "org.openbravo.retail.france.ecotax"
        },
        {
            "method": "git",
            "params": {
                "url": "https://gitlab.com/openbravo/product/pmods/org.openbravo.retail.adyenprovider",
                "ver": "4998755f0eb37260f0b9b5b1291892778f36907f"
            },
            "javapackage": "org.openbravo.retail.adyenprovider"
        },
        {
            "method": "git",
            "params": {
                "url": "https://gitlab.com/openbravo/product/pmods/org.openbravo.retail.ingenicotsiprovider",
                "ver": "6c6a63ad8098de71bfc3d9e2189ea6539f578cac"
            },
            "javapackage": "org.openbravo.retail.ingenicotsiprovider"
        },
        {
            "method": "git",
            "params": {
                "url": "https://gitlab.com/openbravo/product/pmods/org.openbravo.retail.rtprinter",
                "ver": "182e07da6f54b8bc81f954282431a5fa04b3fe28"
            },
            "javapackage": "org.openbravo.retail.rtprinter"
        },
        {
            "method": "git",
            "params": {
                "url": "https://gitlab.com/openbravo/product/pmods/org.openbravo.retail.asyncpayprovider",
                "ver": "8374d85b7f6927e2393dd19b91a390290f5f0e6a"
            },
            "javapackage": "org.openbravo.retail.asyncpayprovider"
        },
        {
            "method": "git",
            "params": {
                "url": "https://gitlab.com/openbravo/product/pmods/org.openbravo.retail.selfcheckout.asyncpayprovider",
                "ver": "03ea0eb8f002156c77193c8c8af51413638c219f"
            },
            "javapackage": "org.openbravo.retail.selfcheckout.asyncpayprovider"
        },
        {
            "method": "git",
            "params": {
                "url": "https://gitlab.com/openbravo/product/pmods/org.openbravo.retail.axisc3",
                "ver": "c5216ea88c9a7b3f18339a58ec87f0f3e049f029"
            },
            "javapackage": "org.openbravo.retail.axisc3"
        },
        {
            "method": "git",
            "params": {
                "url": "https://gitlab.com/openbravo/product/pmods/org.openbravo.retail.nexoprovider",
                "ver": "4609dcf39390f52597d718a1bef3ddc26baf8036"
            },
            "javapackage": "org.openbravo.retail.nexoprovider"
        },
        {
            "method": "git",
            "params": {
                "url": "https://gitlab.com/openbravo/product/pmods/org.openbravo.retail.selfcheckout.nexoprovider",
                "ver": "e20e506fbd5c7a2539fe8a5f0d0cf18db20027f0"
            },
            "javapackage": "org.openbravo.retail.selfcheckout.nexoprovider"
        },
        {
            "method": "git",
            "params": {
                "url": "https://gitlab.com/openbravo/product/pmods/org.openbravo.retail.pack",
                "ver": "release/20Q3"
            },
            "javapackage": "org.openbravo.retail.pack"
        },
        {
            "method": "git",
            "params": {
                "url": "https://gitlab.com/openbravo/product/pmods/org.openbravo.retail.returns",
                "ver": "release/20Q3"
            },
            "javapackage": "org.openbravo.retail.returns"
        },
        {
            "method": "git",
            "params": {
                "url": "https://gitlab.com/openbravo/product/pmods/org.openbravo.retail.poshwmanager",
                "ver": "release/20Q3"
            },
            "javapackage": "org.openbravo.retail.poshwmanager"
        },
        {
            "method": "git",
            "params": {
                "url": "https://gitlab.com/openbravo/product/pmods/org.openbravo.mobile.core",
                "ver": "release/20Q3"
            },
            "javapackage": "org.openbravo.mobile.core"
        },
        {
            "method": "git",
            "params": {
                "url": "https://gitlab.com/openbravo/product/pmods/org.openbravo.retail.config",
                "ver": "release/20Q3"
            },
            "javapackage": "org.openbravo.retail.config"
        },
        {
            "method": "git",
            "params": {
                "url": "https://gitlab.com/openbravo/product/pmods/org.openbravo.retail.posterminal",
                "ver": "release/20Q3"
            },
            "javapackage": "org.openbravo.retail.posterminal"
        },
        {
            "method": "git",
            "params": {
                "url": "https://gitlab.com/openbravo/product/pmods/org.openbravo.retail.discounts",
                "ver": "release/20Q3"
            },
            "javapackage": "org.openbravo.retail.discounts"
        },
        {
            "method": "git",
            "params": {
                "url": "https://gitlab.com/openbravo/product/pmods/org.openbravo.client.analytics",
                "ver": "db6bcf6fcd6af4301f6e6e1fcd8901ee946f821c"
            },
            "javapackage": "org.openbravo.client.analytics"
        },
        {
            "method": "git",
            "params": {
                "url": "https://gitlab.com/openbravo/product/pmods/org.openbravo.financial.multitaxcategory",
                "ver": "b2706bf3839921965d42c8f7f3ab7353852ee0bf"
            },
            "javapackage": "org.openbravo.financial.multitaxcategory"
        },
        {
            "method": "git",
            "params": {
                "url": "https://gitlab.com/openbravo/product/pmods/org.openbravo.retail.servicesequence",
                "ver": "2f969a165272662d5ff712f53adc261fd60a7791"
            },
            "javapackage": "org.openbravo.retail.servicesequence"
        },
        {
            "method": "git",
            "params": {
                "url": "https://gitlab.com/openbravo/ci/modules/org.openbravo.retail.testsampledata",
                "ver": "1c5d7b91cedea8655bef75a6369e4f9613082277"
            },
            "javapackage": "org.openbravo.retail.testsampledata"
        },
        {
            "method": "git",
            "params": {
                "url": "https://gitlab.com/openbravo/product/pmods/org.openbravo.retail.productcost",
                "ver": "e1e8cf2a3efb2e83767c6c296ac63412afa92ece"
            },
            "javapackage": "org.openbravo.retail.productcost"
        },
        {
            "method": "git",
            "params": {
                "url": "https://gitlab.com/openbravo/ci/modules/org.openbravo.test.mobile.sampledata",
                "ver": "11cb1944c35e7e0dd5796203132e4baf2fb19b1e"
            },
            "javapackage": "org.openbravo.test.mobile.sampledata"
        },
        {
            "method": "git",
            "params": {
                "url": "https://gitlab.com/openbravo/product/mods/org.openbravo.module.languagelocalname",
                "ver": "2a13a60024ed7620526de0709257251e809395ea"
            },
            "javapackage": "org.openbravo.module.languagelocalname"
        },
        {
            "method": "git",
            "params": {
                "url": "https://gitlab.com/openbravo/product/pmods/org.openbravo.warehouse.advancedwarehouseoperations",
                "ver": "db79ce38fb5727b10735e225f88b188d0a100803"
            },
            "javapackage": "org.openbravo.warehouse.advancedwarehouseoperations"
        },
        {
            "method": "git",
            "params": {
                "url": "https://gitlab.com/openbravo/product/pmods/org.openbravo.warehouse.advancedwarehouseoperations.printing.bartender",
                "ver": "9729c2ad28edf95e70a69779c58cf875c15a75b2"
            },
            "javapackage": "org.openbravo.warehouse.advancedwarehouseoperations.printing.bartender"
        },
        {
            "method": "git",
            "params": {
                "url": "https://gitlab.com/openbravo/product/pmods/org.openbravo.warehouse.advancedwarehouseoperations.template",
                "ver": "cb0042247753c7d673c9f859924c626073ccd3f4"
            },
            "javapackage": "org.openbravo.warehouse.advancedwarehouseoperations.template"
        },
        {
            "method": "git",
            "params": {
                "url": "https://gitlab.com/openbravo/ci/modules/org.openbravo.warehouse.advancedwarehouseoperations.sampledata",
                "ver": "819cd8f5d4fbdcbe47f6769901585300ec1fa4c7"
            },
            "javapackage": "org.openbravo.warehouse.advancedwarehouseoperations.sampledata"
        },
        {
            "method": "git",
            "params": {
                "url": "https://gitlab.com/openbravo/product/mods/org.openbravo.distributionorder",
                "ver": "12091b8fb0206d83c584407c37f9d1d10814799c"
            },
            "javapackage": "org.openbravo.distributionorder"
        },
        {
            "method": "git",
            "params": {
                "url": "https://gitlab.com/openbravo/product/pmods/org.openbravo.warehouse.advancedwarehouseoperations.distributionorders",
                "ver": "a3480198422887c61ae63ce284c6d704b1d3031d"
            },
            "javapackage": "org.openbravo.warehouse.advancedwarehouseoperations.distributionorders"
        },
        {
            "method": "git",
            "params": {
                "url": "https://gitlab.com/openbravo/product/pmods/org.openbravo.warehouse.advancedwarehouseoperations.retailconnector",
                "ver": "13e2bc46d8fe52211800daed67d5050945aaffa1"
            },
            "javapackage": "org.openbravo.warehouse.advancedwarehouseoperations.retailconnector"
        },
        {
            "method": "git",
            "params": {
                "url": "https://gitlab.com/openbravo/product/mods/org.openbravo.utility.opencsv",
                "ver": "2d9c6331e4f88d33892779946e771391ce1e4ed2"
            },
            "javapackage": "org.openbravo.utility.opencsv"
        },
        {
            "method": "git",
            "params": {
                "url": "https://gitlab.com/openbravo/product/pmods/org.openbravo.externaldata.integration",
                "ver": "5dd7eb202a4b8b9d6f2dda43d52aed0f8e061d70"
            },
            "javapackage": "org.openbravo.externaldata.integration"
        },
        {
            "method": "git",
            "params": {
                "url": "https://gitlab.com/openbravo/product/pmods/org.openbravo.service.external.integration",
                "ver": "f2580c1a55724e354516d7ae6e1937acc690f25d"
            },
            "javapackage": "org.openbravo.service.external.integration"
        },
        {
            "method": "git",
            "params": {
                "url": "https://gitlab.com/openbravo/product/pmods/org.openbravo.retail.orderpreparation",
                "ver": "9539c598c4788f42958c6e1cf46946603bc628b6"
            },
            "javapackage": "org.openbravo.retail.orderpreparation"
        },
        {
            "method": "git",
            "params": {
                "url": "https://gitlab.com/openbravo/product/pmods/org.openbravo.retail.camerabarcodescanner",
                "ver": "f847201949ec6d6b3f37bb22861f0bcd8497fef0"
            },
            "javapackage": "org.openbravo.retail.camerabarcodescanner"
        },
        {
            "method": "git",
            "params": {
                "url": "https://gitlab.com/openbravo/product/pmods/org.openbravo.retail.camerabarcodescanner.posterminal",
                "ver": "b32a5024fd68a1b27c7a24fcb3651ff21b548127"
            },
            "javapackage": "org.openbravo.retail.camerabarcodescanner.posterminal"
        },
        {
            "method": "git",
            "params": {
                "url": "https://gitlab.com/openbravo/product/pmods/org.openbravo.retail.productrelevance",
                "ver": "17fecc9254e9974df478a98628338b81d67dada2"
            },
            "javapackage": "org.openbravo.retail.productrelevance"
        },
        {
            "method": "git",
            "params": {
                "url": "https://gitlab.com/openbravo/product/pmods/org.openbravo.module.resources",
                "ver": "fe3b3d0bf9b5d3fd5526f30795d56cfc66812ddd"
            },
            "javapackage": "org.openbravo.module.resources"
        },
        {
            "method": "git",
            "params": {
                "url": "https://gitlab.com/openbravo/product/mods/org.openbravo.module.productbomversion",
                "ver": "3725a8d03f0d0ac1bbc5759b7a1f9ac1207dc7b2"
            },
            "javapackage": "org.openbravo.module.productbomversion"
        },
        {
            "method": "git",
            "params": {
                "url": "https://gitlab.com/openbravo/product/mods/org.openbravo.module.productbomversion.template",
                "ver": "360cefd36f7df88b51cc41ab52250eebb80f5c85"
            },
            "javapackage": "org.openbravo.module.productbomversion.template"
        },
        {
            "method": "git",
            "params": {
                "url": "https://gitlab.com/openbravo/product/pmods/org.openbravo.portal.member.roles",
                "ver": "7ce67dbb7ab476aebd3b3ddc05a70eaeb232992b"
            },
            "javapackage": "org.openbravo.portal.member.roles"
        },
        {
            "method": "git",
            "params": {
                "url": "https://gitlab.com/openbravo/product/pmods/org.openbravo.retail.productranking",
                "ver": "9f9086092540d60d00ace68d8164f9e0b6563a09"
            },
            "javapackage": "org.openbravo.retail.productranking"
        },
        {
            "method": "git",
            "params": {
                "url": "https://gitlab.com/openbravo/product/pmods/org.openbravo.retail.paymentmethodadditionalinfo",
                "ver": "8805bb5b198450ae32b185c226423be5eace53de"
            },
            "javapackage": "org.openbravo.retail.paymentmethodadditionalinfo"
        },
        {
            "method": "git",
            "params": {
                "url": "https://gitlab.com/openbravo/product/mods/org.openbravo.module.cashvat",
                "ver": "4fa8cf45712d903e3c0f9febf13a3737524db5ad"
            },
            "javapackage": "org.openbravo.module.cashvat"
        },
        {
            "method": "git",
            "params": {
                "url": "https://gitlab.com/openbravo/product/pmods/org.openbravo.api.ticket",
                "ver": "841372e9597ddafc0c2a751f4008df074b14c3ca"
            },
            "javapackage": "org.openbravo.api.ticket"
        },
        {
            "method": "git",
            "params": {
                "url": "https://gitlab.com/openbravo/product/pmods/org.openbravo.service.jsexecutor",
                "ver": "6e84a00246be41da310bc3596c646fb4b8e5d3b5"
            },
            "javapackage": "org.openbravo.service.jsexecutor"
        },
        {
            "method": "git",
            "params": {
                "url": "https://gitlab.com/openbravo/product/pmods/org.openbravo.service.openapi",
                "ver": "ff9199c8c744d6152cd8411421f4790f4a34f023"
            },
            "javapackage": "org.openbravo.service.openapi"
        },
        {
            "method": "git",
            "params": {
                "url": "https://gitlab.com/openbravo/product/pmods/org.openbravo.discounts",
                "ver": "3ff0e26d4509856797d901ae8ac575f170faaea9"
            },
            "javapackage": "org.openbravo.discounts"
        },
        {
            "method": "git",
            "params": {
                "url": "https://gitlab.com/openbravo/product/pmods/org.openbravo.taxes",
                "ver": "fbeb2681932cfd2c3d6b8c37c67005ab9943e473"
            },
            "javapackage": "org.openbravo.taxes"
        },
        {
            "method": "git",
            "params": {
                "url": "https://gitlab.com/openbravo/product/pmods/org.openbravo.oms",
                "ver": "925b839f352360ac6c4f51c99f24c91ef2dcc7f8"
            },
            "javapackage": "org.openbravo.oms"
        },
        {
            "method": "git",
            "params": {
                "url": "https://gitlab.com/openbravo/product/pmods/org.openbravo.warehouse.advancedwarehouseoperations.batchwavepicking",
                "ver": "b21687235f156ac5cc1d8eea34d0d2f5dd464694"
            },
            "javapackage": "org.openbravo.warehouse.advancedwarehouseoperations.batchwavepicking"
        },
        {
            "method": "git",
            "params": {
                "url": "https://gitlab.com/openbravo/product/pmods/org.openbravo.warehouse.advancedwarehouseoperations.operatorloadbalancing",
                "ver": "4bb2c7c4256cc0f421f2165267b2ec2ce8f867a3"
            },
            "javapackage": "org.openbravo.warehouse.advancedwarehouseoperations.operatorloadbalancing"
        },
        {
            "method": "git",
            "params": {
                "url": "https://gitlab.com/openbravo/product/pmods/org.openbravo.warehouse.advancedwarehouseoperations.edl",
                "ver": "2da82b2a920af8c5e2d41a3ee887abf60da96076"
            },
            "javapackage": "org.openbravo.warehouse.advancedwarehouseoperations.edl"
        },
        {
            "method": "git",
            "params": {
                "url": "https://gitlab.com/openbravo/product/mods/org.openbravo.france.ecotax",
                "ver": "394dd37a1aa12357ce20e93337f4c7865f206356"
            },
            "javapackage": "org.openbravo.france.ecotax"
        },
        {
            "method": "git",
            "params": {
                "url": "https://gitlab.com/openbravo/ci/modules/org.openbravo.retail.samplebpintegration",
                "ver": "7e498112f33b7261989c9a13a435820b8f462618"
            },
            "javapackage": "org.openbravo.retail.samplebpintegration"
        },
        {
            "method": "git",
            "params": {
                "url": "https://gitlab.com/openbravo/product/pmods/org.openbravo.portugal.regions",
                "ver": "master"
            },
            "javapackage": "org.openbravo.portugal.regions"
        },
        {
            "method": "git",
            "params": {
                "url": "https://gitlab.com/openbravo/product/pmods/org.openbravo.localization.portugal.referencedata.taxes",
                "ver": "master"
            },
            "javapackage": "org.openbravo.localization.portugal.referencedata.taxes"
        }
    ]
}
