{
    "desc": "Config for functional team",
    "erp": {
        "method": "git",
        "params": {
            "url": "https://gitlab.com/openbravo/product/openbravo",
            "ver": "master"
        }
    },
    "mods": [
        {
            "method": "git",
            "params": {
                "url": "https://gitlab.com/openbravo/product/mods/org.openbravo.module.epigrafes.iae.es",
                "ver": "master"
            },
            "javapackage": "org.openbravo.module.epigrafes.iae.es"
        },
        {
            "method": "git",
            "params": {
                "url": "https://gitlab.com/openbravo/product/mods/org.openbravo.module.remittance",
                "ver": "master"
            },
            "javapackage": "org.openbravo.module.remittance"
        },
        {
            "method": "git",
            "params": {
                "url": "https://gitlab.com/openbravo/product/pmods/org.openbravo.sepa.iso20022.credittransfer.customertobank",
                "ver": "master"
            },
            "javapackage": "org.openbravo.sepa.iso20022.credittransfer.customertobank"
        },
        {
            "method": "git",
            "params": {
                "url": "https://gitlab.com/openbravo/product/pmods/org.openbravo.sepa.iso20022.coredirectdebit.customertobank",
                "ver": "master"
            },
            "javapackage": "org.openbravo.sepa.iso20022.coredirectdebit.customertobank"
        },
        {
            "method": "git",
            "params": {
                "url": "https://gitlab.com/openbravo/product/pmods/org.openbravo.sepa.iso20022",
                "ver": "master"
            },
            "javapackage": "org.openbravo.sepa.iso20022"
        },
        {
            "method": "git",
            "params": {
                "url": "https://gitlab.com/openbravo/product/mods/org.openbravo.localization.spain.referencedata.taxes",
                "ver": "master"
            },
            "javapackage": "org.openbravo.localization.spain.referencedata.taxes"
        },
        {
            "method": "git",
            "params": {
                "url": "https://gitlab.com/openbravo/product/mods/org.openbravo.module.taximprovements.ES",
                "ver": "master"
            },
            "javapackage": "org.openbravo.module.taximprovements.ES"
        },
        {
            "method": "git",
            "params": {
                "url": "https://gitlab.com/openbravo/product/mods/org.openbravo.module.countryisocode",
                "ver": "master"
            },
            "javapackage": "org.openbravo.module.countryisocode"
        },
        {
            "method": "git",
            "params": {
                "url": "https://gitlab.com/openbravo/product/mods/org.openbravo.module.eucountries",
                "ver": "master"
            },
            "javapackage": "org.openbravo.module.eucountries"
        },
        {
            "method": "git",
            "params": {
                "url": "https://gitlab.com/openbravo/product/mods/org.openbravo.spain.regions",
                "ver": "master"
            },
            "javapackage": "org.openbravo.spain.regions"
        },
        {
            "method": "git",
            "params": {
                "url": "https://gitlab.com/openbravo/product/mods/org.openbravo.module.taxreportlauncher",
                "ver": "master"
            },
            "javapackage": "org.openbravo.module.taxreportlauncher"
        },
        {
            "method": "git",
            "params": {
                "url": "https://gitlab.com/openbravo/product/mods/org.openbravo.financialmgmt.accounting.report.notposted",
                "ver": "master"
            },
            "javapackage": "org.openbravo.financialmgmt.accounting.report.notposted"
        },
        {
            "method": "git",
            "params": {
                "url": "https://gitlab.com/openbravo/product/mods/org.openbravo.module.bptaxidkey",
                "ver": "master"
            },
            "javapackage": "org.openbravo.module.bptaxidkey"
        },
        {
            "method": "git",
            "params": {
                "url": "https://gitlab.com/openbravo/product/mods/org.openbravo.module.facturae",
                "ver": "master"
            },
            "javapackage": "org.openbravo.module.facturae"
        },
        {
            "method": "git",
            "params": {
                "url": "https://gitlab.com/openbravo/product/mods/org.openbravo.module.einvoice",
                "ver": "master"
            },
            "javapackage": "org.openbravo.module.einvoice"
        },
        {
            "method": "git",
            "params": {
                "url": "https://gitlab.com/openbravo/product/pmods/org.openbravo.module.facturae32",
                "ver": "master"
            },
            "javapackage": "org.openbravo.module.facturae32"
        },
        {
            "method": "git",
            "params": {
                "url": "https://gitlab.com/openbravo/product/pmods/org.openbravo.module.intrastat",
                "ver": "master"
            },
            "javapackage": "org.openbravo.module.intrastat"
        },
        {
            "method": "git",
            "params": {
                "url": "https://gitlab.com/openbravo/product/pmods/org.openbravo.module.intrastat.spain",
                "ver": "master"
            },
            "javapackage": "org.openbravo.module.intrastat.spain"
        },
        {
            "method": "git",
            "params": {
                "url": "https://gitlab.com/openbravo/product/pmods/org.openbravo.module.incoterms",
                "ver": "master"
            },
            "javapackage": "org.openbravo.module.incoterms"
        },
        {
            "method": "git",
            "params": {
                "url": "https://gitlab.com/openbravo/product/mods/org.openbravo.module.cifnifvalidator",
                "ver": "master"
            },
            "javapackage": "org.openbravo.module.cifnifvalidator"
        },
        {
            "method": "git",
            "params": {
                "url": "https://gitlab.com/openbravo/product/mods/org.openbravo.module.cifnifvalidator.es_ES",
                "ver": "master"
            },
            "javapackage": "org.openbravo.module.cifnifvalidator.es_ES"
        },
        {
            "method": "git",
            "params": {
                "url": "https://gitlab.com/openbravo/product/mods/org.openbravo.numbertoword_en",
                "ver": "master"
            },
            "javapackage": "org.openbravo.numbertoword_en"
        },
        {
            "method": "git",
            "params": {
                "url": "https://gitlab.com/openbravo/product/mods/org.openbravo.module.validto",
                "ver": "master"
            },
            "javapackage": "org.openbravo.module.validto"
        },
        {
            "method": "git",
            "params": {
                "url": "https://gitlab.com/openbravo/product/mods/org.openbravo.finance.addpaymentcreditpaymentsgrid",
                "ver": "master"
            },
            "javapackage": "org.openbravo.finance.addpaymentcreditpaymentsgrid"
        },
        {
            "method": "git",
            "params": {
                "url": "https://gitlab.com/openbravo/product/mods/org.openbravo.localization.spain.referencedata.accounts.pymes",
                "ver": "master"
            },
            "javapackage": "org.openbravo.localization.spain.referencedata.accounts.pymes"
        },
        {
            "method": "git",
            "params": {
                "url": "https://gitlab.com/openbravo/product/mods/org.openbravo.storno.invoice",
                "ver": "master"
            },
            "javapackage": "org.openbravo.storno.invoice"
        },
        {
            "method": "git",
            "params": {
                "url": "https://gitlab.com/openbravo/product/mods/org.openbravo.module.organization.representative.es",
                "ver": "master"
            },
            "javapackage": "org.openbravo.module.organization.representative.es"
        },
        {
            "method": "git",
            "params": {
                "url": "https://gitlab.com/openbravo/product/mods/org.openbravo.numbertoword",
                "ver": "master"
            },
            "javapackage": "org.openbravo.numbertoword"
        },
        {
            "method": "git",
            "params": {
                "url": "https://gitlab.com/openbravo/product/mods/org.openbravo.reports.shipmentsawaitinginvoice",
                "ver": "master"
            },
            "javapackage": "org.openbravo.reports.shipmentsawaitinginvoice"
        },
        {
            "method": "git",
            "params": {
                "url": "https://gitlab.com/openbravo/product/mods/org.openbravo.obbo",
                "ver": "master"
            },
            "javapackage": "org.openbravo.obbo"
        },
        {
            "method": "git",
            "params": {
                "url": "https://gitlab.com/openbravo/product/mods/org.openbravo.financial.accounttreeexport",
                "ver": "master"
            },
            "javapackage": "org.openbravo.financial.accounttreeexport"
        },
        {
            "method": "git",
            "params": {
                "url": "https://gitlab.com/openbravo/product/mods/org.openbravo.module.paymentmethod.type",
                "ver": "master"
            },
            "javapackage": "org.openbravo.module.paymentmethod.type"
        },
        {
            "method": "git",
            "params": {
                "url": "https://gitlab.com/openbravo/product/mods/org.openbravo.report.improved.balancesheet",
                "ver": "master"
            },
            "javapackage": "org.openbravo.report.improved.balancesheet"
        },
        {
            "method": "git",
            "params": {
                "url": "https://gitlab.com/openbravo/product/pmods/org.openbravo.accrualsanddeferrals",
                "ver": "master"
            },
            "javapackage": "org.openbravo.accrualsanddeferrals"
        },
        {
            "method": "git",
            "params": {
                "url": "https://gitlab.com/openbravo/product/pmods/org.openbravo.authorize.net",
                "ver": "master"
            },
            "javapackage": "org.openbravo.authorize.net"
        },
        {
            "method": "git",
            "params": {
                "url": "https://gitlab.com/openbravo/product/pmods/org.openbravo.costing.algorithm.fifo",
                "ver": "master"
            },
            "javapackage": "org.openbravo.costing.algorithm.fifo"
        },
        {
            "method": "git",
            "params": {
                "url": "https://gitlab.com/openbravo/product/pmods/org.openbravo.document.massinvoicing",
                "ver": "master"
            },
            "javapackage": "org.openbravo.document.massinvoicing"
        },
        {
            "method": "git",
            "params": {
                "url": "https://gitlab.com/openbravo/product/pmods/org.openbravo.finance.checkprinting",
                "ver": "master"
            },
            "javapackage": "org.openbravo.finance.checkprinting"
        },
        {
            "method": "git",
            "params": {
                "url": "https://gitlab.com/openbravo/product/pmods/org.openbravo.idl",
                "ver": "master"
            },
            "javapackage": "org.openbravo.idl"
        },
        {
            "method": "git",
            "params": {
                "url": "https://gitlab.com/openbravo/product/pmods/org.openbravo.idl.variants",
                "ver": "master"
            },
            "javapackage": "org.openbravo.idl.variants"
        },
        {
            "method": "git",
            "params": {
                "url": "https://gitlab.com/openbravo/product/pmods/org.openbravo.interco",
                "ver": "master"
            },
            "javapackage": "org.openbravo.interco"
        },
        {
            "method": "git",
            "params": {
                "url": "https://gitlab.com/openbravo/product/pmods/org.openbravo.module.facturae31",
                "ver": "master"
            },
            "javapackage": "org.openbravo.module.facturae31"
        },
        {
            "method": "git",
            "params": {
                "url": "https://gitlab.com/openbravo/product/pmods/org.openbravo.module.idljava",
                "ver": "master"
            },
            "javapackage": "org.openbravo.module.idljava"
        },
        {
            "method": "git",
            "params": {
                "url": "https://gitlab.com/openbravo/product/pmods/org.openbravo.sepa.iso20022.camt",
                "ver": "master"
            },
            "javapackage": "org.openbravo.sepa.iso20022.camt"
        },
        {
            "method": "git",
            "params": {
                "url": "https://gitlab.com/openbravo/product/pmods/org.openbravo.portal.member.roles",
                "ver": "master"
            },
            "javapackage": "org.openbravo.portal.member.roles"
        },
        {
            "method": "git",
            "params": {
                "url": "https://gitlab.com/openbravo/product/pmods/org.openbravo.spanishdefaultdata.paymentmethods",
                "ver": "master"
            },
            "javapackage": "org.openbravo.spanishdefaultdata.paymentmethods"
        },
        {
            "method": "git",
            "params": {
                "url": "https://gitlab.com/openbravo/product/pmods/org.openbravo.spanishdefaultdata.paymentterms",
                "ver": "master"
            },
            "javapackage": "org.openbravo.spanishdefaultdata.paymentterms"
        },
        {
            "method": "git",
            "params": {
                "url": "https://gitlab.com/openbravo/product/pmods/org.openbravo.module.invoicematchingalgorithm",
                "ver": "master"
            },
            "javapackage": "org.openbravo.module.invoicematchingalgorithm"
        },
        {
            "method": "git",
            "params": {
                "url": "https://gitlab.com/openbravo/product/pmods/org.openbravo.module.resources",
                "ver": "master"
            },
            "javapackage": "org.openbravo.module.resources"
        },
        {
            "method": "git",
            "params": {
                "url": "https://gitlab.com/openbravo/product/mods/org.openbravo.advpaymentmngt.alerts",
                "ver": "master"
            },
            "javapackage": "org.openbravo.advpaymentmngt.alerts"
        },
        {
            "method": "git",
            "params": {
                "url": "https://gitlab.com/openbravo/product/pmods/org.openbravo.bankstatement.importer.generic.csv",
                "ver": "master"
            },
            "javapackage": "org.openbravo.bankstatement.importer.generic.csv"
        },
        {
            "method": "git",
            "params": {
                "url": "https://gitlab.com/openbravo/product/pmods/org.openbravo.bankstatement.importer.wepay.csv",
                "ver": "master"
            },
            "javapackage": "org.openbravo.bankstatement.importer.wepay.csv"
        },
        {
            "method": "git",
            "params": {
                "url": "https://gitlab.com/openbravo/product/pmods/org.openbravo.materialmgmt.catalog",
                "ver": "master"
            },
            "javapackage": "org.openbravo.materialmgmt.catalog"
        },
        {
            "method": "git",
            "params": {
                "url": "https://gitlab.com/openbravo/product/pmods/org.openbravo.materialmgmt.freightmgmt",
                "ver": "master"
            },
            "javapackage": "org.openbravo.materialmgmt.freightmgmt"
        },
        {
            "method": "git",
            "params": {
                "url": "https://gitlab.com/openbravo/product/pmods/org.openbravo.module.standardOFX",
                "ver": "master"
            },
            "javapackage": "org.openbravo.module.standardOFX"
        },
        {
            "method": "git",
            "params": {
                "url": "https://gitlab.com/openbravo/product/pmods/org.openbravo.portal.member.widgets",
                "ver": "master"
            },
            "javapackage": "org.openbravo.portal.member.widgets"
        },
        {
            "method": "git",
            "params": {
                "url": "https://gitlab.com/openbravo/product/mods/org.openbravo.module.generictreereport",
                "ver": "master"
            },
            "javapackage": "org.openbravo.module.generictreereport"
        },
        {
            "method": "git",
            "params": {
                "url": "https://gitlab.com/openbravo/product/pmods/org.openbravo.bankstatement.importer.generic.csv.es_ES",
                "ver": "master"
            },
            "javapackage": "org.openbravo.bankstatement.importer.generic.csv.es_ES"
        },
        {
            "method": "git",
            "params": {
                "url": "https://gitlab.com/openbravo/product/pmods/org.openbravo.finance.checkprinting.es_ES",
                "ver": "master"
            },
            "javapackage": "org.openbravo.finance.checkprinting.es_ES"
        },
        {
            "method": "git",
            "params": {
                "url": "https://gitlab.com/openbravo/product/pmods/org.openbravo.financial.conversionrates",
                "ver": "master"
            },
            "javapackage": "org.openbravo.financial.conversionrates"
        },
        {
            "method": "git",
            "params": {
                "url": "https://gitlab.com/openbravo/product/pmods/org.openbravo.financial.invoicepaymentreport",
                "ver": "master"
            },
            "javapackage": "org.openbravo.financial.invoicepaymentreport"
        },
        {
            "method": "git",
            "params": {
                "url": "https://gitlab.com/openbravo/product/pmods/org.openbravo.financial.invoicetaxreport",
                "ver": "master"
            },
            "javapackage": "org.openbravo.financial.invoicetaxreport"
        },
        {
            "method": "git",
            "params": {
                "url": "https://gitlab.com/openbravo/product/pmods/org.openbravo.financial.multitaxcategory",
                "ver": "master"
            },
            "javapackage": "org.openbravo.financial.multitaxcategory"
        },
        {
            "method": "git",
            "params": {
                "url": "https://gitlab.com/openbravo/product/mods/org.openbravo.financial.paymentreport.es_ES",
                "ver": "master"
            },
            "javapackage": "org.openbravo.financial.paymentreport.es_ES"
        },
        {
            "method": "git",
            "params": {
                "url": "https://gitlab.com/openbravo/product/pmods/org.openbravo.materialmgmt.catalog.es_ES",
                "ver": "master"
            },
            "javapackage": "org.openbravo.materialmgmt.catalog.es_ES"
        },
        {
            "method": "git",
            "params": {
                "url": "https://gitlab.com/openbravo/product/pmods/org.openbravo.materialmgmt.freightmgmt.es_ES",
                "ver": "master"
            },
            "javapackage": "org.openbravo.materialmgmt.freightmgmt.es_ES"
        },
        {
            "method": "git",
            "params": {
                "url": "https://gitlab.com/openbravo/product/mods/org.openbravo.module.cifnifvalidator.es_ES",
                "ver": "master"
            },
            "javapackage": "org.openbravo.module.cifnifvalidator.es_ES"
        },
        {
            "method": "git",
            "params": {
                "url": "https://gitlab.com/openbravo/product/mods/org.openbravo.module.einvoice.es_ES",
                "ver": "master"
            },
            "javapackage": "org.openbravo.module.einvoice.es_ES"
        },
        {
            "method": "git",
            "params": {
                "url": "https://gitlab.com/openbravo/product/mods/org.openbravo.module.finactvalidator.es",
                "ver": "master"
            },
            "javapackage": "org.openbravo.module.finactvalidator.es"
        },
        {
            "method": "git",
            "params": {
                "url": "https://gitlab.com/openbravo/product/mods/org.openbravo.numbertoword.es_ES",
                "ver": "master"
            },
            "javapackage": "org.openbravo.numbertoword.es_ES"
        },
        {
            "method": "git",
            "params": {
                "url": "https://gitlab.com/openbravo/product/mods/org.openbravo.advpaymentmngt.es_ES",
                "ver": "master"
            },
            "javapackage": "org.openbravo.advpaymentmngt.es_ES"
        },
        {
            "method": "git",
            "params": {
                "url": "https://gitlab.com/openbravo/product/pmods/org.openbravo.accrualsanddeferrals.es_ES",
                "ver": "master"
            },
            "javapackage": "org.openbravo.accrualsanddeferrals.es_ES"
        },
        {
            "method": "git",
            "params": {
                "url": "https://gitlab.com/openbravo/product/mods/org.openbravo.alerts.accounting30",
                "ver": "master"
            },
            "javapackage": "org.openbravo.alerts.accounting30"
        },
        {
            "method": "git",
            "params": {
                "url": "https://gitlab.com/openbravo/product/mods/org.openbravo.alerts.accounting30.es_ES",
                "ver": "master"
            },
            "javapackage": "org.openbravo.alerts.accounting30.es_ES"
        },
        {
            "method": "git",
            "params": {
                "url": "https://gitlab.com/openbravo/product/mods/org.openbravo.client.application.es_ES",
                "ver": "master"
            },
            "javapackage": "org.openbravo.client.application.es_ES"
        },
        {
            "method": "git",
            "params": {
                "url": "https://gitlab.com/openbravo/product/mods/org.openbravo.client.myob.es_ES",
                "ver": "master"
            },
            "javapackage": "org.openbravo.client.myob.es_ES"
        },
        {
            "method": "git",
            "params": {
                "url": "https://gitlab.com/openbravo/product/mods/org.openbravo.localization.spain.referencedata.accounts",
                "ver": "master"
            },
            "javapackage": "org.openbravo.localization.spain.referencedata.accounts"
        },
        {
            "method": "git",
            "params": {
                "url": "https://gitlab.com/openbravo/product/mods/org.openbravo.localization.spain.referencedata.translation.esES",
                "ver": "master"
            },
            "javapackage": "org.openbravo.localization.spain.referencedata.translation.esES"
        },
        {
            "method": "git",
            "params": {
                "url": "https://gitlab.com/openbravo/product/pmods/org.openbravo.module.intrastat.es_ES",
                "ver": "master"
            },
            "javapackage": "org.openbravo.module.intrastat.es_ES"
        },
        {
            "method": "git",
            "params": {
                "url": "https://gitlab.com/openbravo/product/mods/org.openbravo.module.remittance.es_ES",
                "ver": "master"
            },
            "javapackage": "org.openbravo.module.remittance.es_ES"
        },
        {
            "method": "git",
            "params": {
                "url": "https://gitlab.com/openbravo/product/pmods/org.openbravo.module.resources.es_ES",
                "ver": "master"
            },
            "javapackage": "org.openbravo.module.resources.es_ES"
        },
        {
            "method": "git",
            "params": {
                "url": "https://gitlab.com/openbravo/product/mods/org.openbravo.module.taximprovements.es_ES",
                "ver": "master"
            },
            "javapackage": "org.openbravo.module.taximprovements.es_ES"
        },
        {
            "method": "git",
            "params": {
                "url": "https://gitlab.com/openbravo/product/mods/org.openbravo.module.taxreportlauncher.es",
                "ver": "master"
            },
            "javapackage": "org.openbravo.module.taxreportlauncher.es"
        },
        {
            "method": "git",
            "params": {
                "url": "https://gitlab.com/openbravo/product/mods/org.openbravo.userinterface.smartclient.es_ES",
                "ver": "master"
            },
            "javapackage": "org.openbravo.userinterface.smartclient.es_ES"
        },
        {
            "method": "git",
            "params": {
                "url": "https://gitlab.com/openbravo/product/mods/org.openbravo.v3.translation.pack.es_ES",
                "ver": "master"
            },
            "javapackage": "org.openbravo.v3.translation.pack.es_ES"
        },
        {
            "method": "git",
            "params": {
                "url": "https://gitlab.com/openbravo/product/mods/org.openbravo.service.datasource.es_ES",
                "ver": "master"
            },
            "javapackage": "org.openbravo.service.datasource.es_ES"
        },
        {
            "method": "git",
            "params": {
                "url": "https://gitlab.com/openbravo/product/mods/org.openbravo.client.htmlwidget.es_ES",
                "ver": "master"
            },
            "javapackage": "org.openbravo.client.htmlwidget.es_ES"
        },
        {
            "method": "git",
            "params": {
                "url": "https://gitlab.com/openbravo/product/mods/org.openbravo.reports.ordersawaitingdelivery.es_ES",
                "ver": "master"
            },
            "javapackage": "org.openbravo.reports.ordersawaitingdelivery.es_ES"
        },
        {
            "method": "git",
            "params": {
                "url": "https://gitlab.com/openbravo/product/mods/org.openbravo.client.kernel.es_ES",
                "ver": "master"
            },
            "javapackage": "org.openbravo.client.kernel.es_ES"
        },
        {
            "method": "git",
            "params": {
                "url": "https://gitlab.com/openbravo/product/mods/org.openbravo.service.integration.openid.es_ES",
                "ver": "master"
            },
            "javapackage": "org.openbravo.service.integration.openid.es_ES"
        },
        {
            "method": "git",
            "params": {
                "url": "https://gitlab.com/openbravo/product/mods/org.openbravo.service.integration.google.es_ES",
                "ver": "master"
            },
            "javapackage": "org.openbravo.service.integration.google.es_ES"
        },
        {
            "method": "git",
            "params": {
                "url": "https://gitlab.com/openbravo/product/mods/org.openbravo.userinterface.selector.es_ES",
                "ver": "master"
            },
            "javapackage": "org.openbravo.userinterface.selector.es_ES"
        },
        {
            "method": "git",
            "params": {
                "url": "https://gitlab.com/openbravo/product/mods/org.openbravo.client.querylist.es_ES",
                "ver": "master"
            },
            "javapackage": "org.openbravo.client.querylist.es_ES"
        },
        {
            "method": "git",
            "params": {
                "url": "https://gitlab.com/openbravo/product/mods/org.openbravo.client.widgets.es_ES",
                "ver": "master"
            },
            "javapackage": "org.openbravo.client.widgets.es_ES"
        },
        {
            "method": "git",
            "params": {
                "url": "https://gitlab.com/openbravo/product/pmods/org.openbravo.financial.bpsettlement",
                "ver": "master"
            },
            "javapackage": "org.openbravo.financial.bpsettlement"
        },
        {
            "method": "git",
            "params": {
                "url": "https://gitlab.com/openbravo/product/mods/org.openbravo.module.languagelocalname",
                "ver": "master"
            },
            "javapackage": "org.openbravo.module.languagelocalname"
        },
        {
            "method": "git",
            "params": {
                "url": "https://gitlab.com/openbravo/product/mods/org.openbravo.utility.draganddropselector3lists",
                "ver": "master"
            },
            "javapackage": "org.openbravo.utility.draganddropselector3lists"
        },
        {
            "method": "git",
            "params": {
                "url": "https://gitlab.com/openbravo/product/mods/org.openbravo.utility.draganddropselector3listsimplementation",
                "ver": "master"
            },
            "javapackage": "org.openbravo.utility.draganddropselector3listsimplementation"
        },
        {
            "method": "git",
            "params": {
                "url": "https://gitlab.com/openbravo/product/pmods/org.openbravo.module.maintenancemanagement.infrastructure",
                "ver": "master"
            },
            "javapackage": "org.openbravo.module.maintenancemanagement.infrastructure"
        },
        {
            "method": "git",
            "params": {
                "url": "https://gitlab.com/openbravo/product/mods/org.openbravo.module.productbomversion",
                "ver": "master"
            },
            "javapackage": "org.openbravo.module.productbomversion"
        },
        {
            "method": "git",
            "params": {
                "url": "https://gitlab.com/openbravo/product/mods/org.openbravo.module.productbomversion.template",
                "ver": "master"
            },
            "javapackage": "org.openbravo.module.productbomversion.template"
        },
        {
            "method": "git",
            "params": {
                "url": "https://gitlab.com/openbravo/product/mods/org.openbravo.utility.opencsv",
                "ver": "master"
            },
            "javapackage": "org.openbravo.utility.opencsv"
        },
        {
            "method": "git",
            "params": {
                "url": "https://gitlab.com/openbravo/product/pmods/org.openbravo.idl.translation.es_ES",
                "ver": "master"
            },
            "javapackage": "org.openbravo.idl.translation.es_ES"
        },
        {
            "method": "git",
            "params": {
                "url": "https://gitlab.com/openbravo/product/pmods/org.openbravo.oms",
                "ver": "master"
            },
            "javapackage": "org.openbravo.oms"
        },
        {
            "method": "git",
            "params": {
                "url": "https://gitlab.com/openbravo/product/mods/org.openbravo.masterdata.uniqueconstraintbylegalentity",
                "ver": "master"
            },
            "javapackage": "org.openbravo.masterdata.uniqueconstraintbylegalentity"
        },
        {
            "method": "git",
            "params": {
                "url": "https://gitlab.com/openbravo/product/mods/org.openbravo.utility.multiplebpselector.es_ES",
                "ver": "master"
            },
            "javapackage": "org.openbravo.utility.multiplebpselector.es_ES"
        }
    ],
    "deps": [
        {
            "method": "git",
            "params": {
                "url": "https://gitlab.com/openbravo/product/mods/org.openbravo.utility.multiplebpselector",
                "ver": "master"
            },
            "javapackage": "org.openbravo.utility.multiplebpselector"
        },
        {
            "method": "git",
            "params": {
                "url": "https://gitlab.com/openbravo/product/mods/org.openbravo.util.jaxws",
                "ver": "master"
            },
            "javapackage": "org.openbravo.util.jaxws"
        },
        {
            "method": "git",
            "params": {
                "url": "https://gitlab.com/openbravo/product/mods/org.openbravo.util.javax.xml.soap",
                "ver": "master"
            },
            "javapackage": "org.openbravo.util.javax.xml.soap"
        },
        {
            "method": "git",
            "params": {
                "url": "https://gitlab.com/openbravo/product/pmods/org.openbravo.api.ticket",
                "ver": "master"
            },
            "javapackage": "org.openbravo.api.ticket"
        }
    ]
}
