{
    "desc": "Config for new pos2 with addon modules",
    "erp": {
        "method": "git",
        "params": {
            "url": "https://gitlab.com/openbravo/product/openbravo",
            "ver": "master"
        }
    },
    "mods": [{
            "method": "git",
            "params": {
                "url": "https://gitlab.com/openbravo/product/pmods/org.openbravo.pos2",
                "ver": "master"
            },
            "javapackage": "org.openbravo.pos2"
        },
        {
            "method": "git",
            "params": {
                "url": "https://gitlab.com/openbravo/product/pmods/org.openbravo.pos2.sampledata",
                "ver": "master"
            },
            "javapackage": "org.openbravo.pos2.sampledata"
        },
        {
            "method": "git",
            "params": {
                "url": "https://gitlab.com/openbravo/product/pmods/org.openbravo.core2",
                "ver": "master"
            },
            "javapackage": "org.openbravo.core2"
        },
        {
            "method": "git",
            "params": {
                "url": "https://gitlab.com/openbravo/product/pmods/org.openbravo.pos2.restaurant",
                "ver": "master"
            },
            "javapackage": "org.openbravo.pos2.restaurant"
        },
        {
            "method": "git",
            "params": {
                "url": "https://gitlab.com/openbravo/product/pmods/org.openbravo.pos2.restaurant.sampledata",
                "ver": "master"
            },
            "javapackage": "org.openbravo.pos2.restaurant.sampledata"
        },
        {
            "method": "git",
            "params": {
                "url": "https://gitlab.com/openbravo/product/pmods/org.openbravo.retail.giftcards",
                "ver": "master"
            },
            "javapackage": "org.openbravo.retail.giftcards"
        },
        {
            "method": "git",
            "params": {
                "url": "https://gitlab.com/openbravo/product/pmods/org.openbravo.retail.asyncpayprovider",
                "ver": "master"
            },
            "javapackage": "org.openbravo.retail.asyncpayprovider"
        },
        {
            "method": "git",
            "params": {
                "url": "https://gitlab.com/openbravo/product/pmods/org.openbravo.retail.axisc3",
                "ver": "master"
            },
            "javapackage": "org.openbravo.retail.axisc3"
        },
        {
            "method": "git",
            "params": {
                "url": "https://gitlab.com/openbravo/ci/modules/org.openbravo.certification.france.dev",
                "ver": "master"
            },
            "javapackage": "org.openbravo.certification.france"
        },
        {
            "method": "git",
            "params": {
                "url": "https://gitlab.com/openbravo/ci/modules/org.openbravo.certification.france.testing",
                "ver": "master"
            },
            "javapackage": "org.openbravo.certification.france.testing"
        },
        {
            "method": "git",
            "params": {
                "url": "https://gitlab.com/openbravo/product/pmods/org.openbravo.pos2.marketingsurvey",
                "ver": "master"
            },
            "javapackage": "org.openbravo.pos2.marketingsurvey"
        },
        {
            "method": "git",
            "params": {
                "url": "https://gitlab.com/openbravo/product/pmods/org.openbravo.pos2.marketingsurvey.sampledata",
                "ver": "master"
            },
            "javapackage": "org.openbravo.pos2.marketingsurvey.sampledata"
        },
        {
            "method": "git",
            "params": {
                "url": "https://gitlab.com/openbravo/product/pmods/org.openbravo.pos2.allergens",
                "ver": "master"
            },
            "javapackage": "org.openbravo.pos2.allergens"
        }
    ],
    "deps": [{
            "method": "git",
            "params": {
                "url": "https://gitlab.com/openbravo/product/pmods/org.openbravo.retail.pack",
                "ver": "master"
            },
            "javapackage": "org.openbravo.retail.pack"
        },
        {
            "method": "git",
            "params": {
                "url": "https://gitlab.com/openbravo/product/pmods/org.openbravo.retail.returns",
                "ver": "master"
            },
            "javapackage": "org.openbravo.retail.returns"
        },
        {
            "method": "git",
            "params": {
                "url": "https://gitlab.com/openbravo/product/pmods/org.openbravo.retail.poshwmanager",
                "ver": "master"
            },
            "javapackage": "org.openbravo.retail.poshwmanager"
        },
        {
            "method": "git",
            "params": {
                "url": "https://gitlab.com/openbravo/product/pmods/org.openbravo.mobile.core",
                "ver": "master"
            },
            "javapackage": "org.openbravo.mobile.core"
        },
        {
            "method": "git",
            "params": {
                "url": "https://gitlab.com/openbravo/product/pmods/org.openbravo.retail.config",
                "ver": "master"
            },
            "javapackage": "org.openbravo.retail.config"
        },
        {
            "method": "git",
            "params": {
                "url": "https://gitlab.com/openbravo/product/pmods/org.openbravo.retail.posterminal",
                "ver": "master"
            },
            "javapackage": "org.openbravo.retail.posterminal"
        },
        {
            "method": "git",
            "params": {
                "url": "https://gitlab.com/openbravo/product/pmods/org.openbravo.retail.discounts",
                "ver": "master"
            },
            "javapackage": "org.openbravo.retail.discounts"
        },
        {
            "method": "git",
            "params": {
                "url": "https://gitlab.com/openbravo/product/pmods/org.openbravo.retail.sampledata",
                "ver": "master"
            },
            "javapackage": "org.openbravo.retail.sampledata"
        },
        {
            "method": "git",
            "params": {
                "url": "https://gitlab.com/openbravo/ci/modules/org.openbravo.retail.samplebpintegration",
                "ver": "master"
            },
            "javapackage": "org.openbravo.retail.samplebpintegration"
        },
        {
            "method": "git",
            "params": {
                "url": "https://gitlab.com/openbravo/product/mods/org.openbravo.utility.opencsv",
                "ver": "master"
            },
            "javapackage": "org.openbravo.utility.opencsv"
        }
    ],
    "scripts": {
	"execute-cypress": [
            {
                "file": "retail/execute_cypress_test_devel.sh",
                "params": [
                    "$WORKSPACE $JOB_NAME"
                ]
            }
        ]
    }
}
